%YAML 1.1
%TAG !u! tag:unity3d.com,2011:
--- !u!21 &2100000
Material:
  serializedVersion: 6
  m_ObjectHideFlags: 0
  m_PrefabParentObject: {fileID: 0}
  m_PrefabInternal: {fileID: 0}
  m_Name: PoopCloud
  m_Shader: {fileID: 4800000, guid: 2b9ccfaa78997ac4b9f709dd47f45e7f, type: 3}
  m_ShaderKeywords: 
  m_LightmapFlags: 4
  m_EnableInstancingVariants: 0
  m_CustomRenderQueue: -1
  stringTagMap: {}
  disabledShaderPasses: []
  m_SavedProperties:
    serializedVersion: 3
    m_TexEnvs:
    - _MainTex:
        m_Texture: {fileID: 2800000, guid: d43bcf5a88415a348b8916c21e5c92d8, type: 3}
        m_Scale: {x: 1, y: 1}
        m_Offset: {x: 0, y: 0}
    - _Mask:
        m_Texture: {fileID: 2800000, guid: 1830bcc6a8e2d4548937f7b8f62b7d2a, type: 3}
        m_Scale: {x: 1, y: 1}
        m_Offset: {x: 0, y: 0}
    m_Floats:
    - _CurFrame: 4
    - _Frames: 2
    - _FramesX: 3
    - _FramesY: 3
    - _InvFade: 1
    - _Speed: 300
    - _TexCoordScrollX: 24
    - _TexCoordScrollY: 0
    m_Colors:
    - _Color: {r: 1, g: 1, b: 1, a: 1}
    - _TintColor: {r: 0.123117775, g: 0.13235295, b: 0.09050606, a: 1}
