%YAML 1.1
%TAG !u! tag:unity3d.com,2011:
--- !u!21 &2100000
Material:
  serializedVersion: 6
  m_ObjectHideFlags: 0
  m_PrefabParentObject: {fileID: 0}
  m_PrefabInternal: {fileID: 0}
  m_Name: TooltipArrow
  m_Shader: {fileID: 4800000, guid: d0cbb1e8abde3d34985dedf3a1c17ce6, type: 3}
  m_ShaderKeywords: ETC1_EXTERNAL_ALPHA
  m_LightmapFlags: 4
  m_EnableInstancingVariants: 0
  m_CustomRenderQueue: -1
  stringTagMap: {}
  disabledShaderPasses: []
  m_SavedProperties:
    serializedVersion: 3
    m_TexEnvs:
    - _AlphaTex:
        m_Texture: {fileID: 0}
        m_Scale: {x: 1, y: 1}
        m_Offset: {x: 0, y: 0}
    - _MainTex:
        m_Texture: {fileID: 10914, guid: 0000000000000000f000000000000000, type: 0}
        m_Scale: {x: 1, y: 1}
        m_Offset: {x: 0, y: 0}
    - _Mask:
        m_Texture: {fileID: 2800000, guid: 1830bcc6a8e2d4548937f7b8f62b7d2a, type: 3}
        m_Scale: {x: 1, y: 1}
        m_Offset: {x: 0, y: 0}
    m_Floats:
    - PixelSnap: 0
    - _Alpha: 0
    - _CurFrame: 4
    - _EnableExternalAlpha: 0
    - _Frames: 2
    - _FramesX: 3
    - _FramesY: 3
    - _InvFade: 0.01
    - _OutLineSpread: 0.0137
    - _Speed: 300
    - _TexCoordScrollX: 24
    - _TexCoordScrollY: 0
    m_Colors:
    - _BaseColor: {r: 0, g: 0, b: 0, a: 0.497}
    - _Color: {r: 1, g: 1, b: 1, a: 1}
    - _ColorX: {r: 0.86206913, g: 0, b: 1, a: 1}
    - _Flip: {r: 1, g: 1, b: 1, a: 1}
    - _RendererColor: {r: 1, g: 1, b: 1, a: 1}
    - _TintColor: {r: 1, g: 1, b: 1, a: 1}
